{
    "query": "basel",
    "iso2": null,
    "currentPage": 1,
    "itemsPerPage": 10,
    "pages": 8,
    "count": 80,
    "orderBy": "ranker DESC",
    "lat": null,
    "lon": null,
    "radius": 20,
    "type": "name",
    "results": [
        {
            "name": "Basel",
            "iso2": "CH",
            "country": "Switzerland",
            "admin1": "Canton of Basel-City",
            "lat": 47.5584,
            "lon": 7.57327,
            "asl": 279,
            "timezone": "Europe\/Zurich",
            "population": 164488,
            "distance": 563.4203,
            "icao": "",
            "iata": "BSL",
            "postcodes": [
                "4000",
                "4001",
                "4002",
                "4003",
                "4004",
                "4005",
                "4007",
                "4008",
                "4009",
                "4010",
                "4011",
                "4012",
                "4013",
                "4015",
                "4016",
                "4017",
                "4018",
                "4019",
                "4020",
                "4023",
                "4024",
                "4025",
                "4030",
                "4031",
                "4032",
                "4033",
                "4034",
                "4035",
                "4039",
                "4040",
                "4041",
                "4042",
                "4051",
                "4052",
                "4053",
                "4054",
                "4055",
                "4056",
                "4057",
                "4058",
                "4059",
                "4065",
                "4070",
                "4075",
                "4078",
                "4080",
                "4081",
                "4082",
                "4083",
                "4084",
                "4085",
                "4086",
                "4087",
                "4088",
                "4089",
                "4091",
                "4092",
                "4093",
                "4094",
                "4095",
                "4096",
                "4105"
            ],
            "featureClass": "P",
            "featureCode": "PPLA",
            "url": "basel_switzerland_2661604",
            "id": 2661604
        },
        {
            "name": "Barcelona",
            "iso2": "ES",
            "country": "Spain",
            "admin1": "Catalonia",
            "lat": 41.3888,
            "lon": 2.15899,
            "asl": 15,
            "timezone": "Europe\/Madrid",
            "population": 1620343,
            "distance": 1366.2548,
            "icao": "",
            "iata": "BCN",
            "postcodes": [
                "08001",
                "08002",
                "08003",
                "08004",
                "08005",
                "08006",
                "08007",
                "08008",
                "08009",
                "08010",
                "08011",
                "08012",
                "08013",
                "08014",
                "08015",
                "08016",
                "08017",
                "08018",
                "08019",
                "08020",
                "08021",
                "08022",
                "08023",
                "08024",
                "08025",
                "08026",
                "08027",
                "08028",
                "08029",
                "08030",
                "08031",
                "08032",
                "08033",
                "08034",
                "08035",
                "08036",
                "08037",
                "08038",
                "08039",
                "08040",
                "08041",
                "08042",
                "08070",
                "08071",
                "08075",
                "08080",
                "17454",
                "25637"
            ],
            "featureClass": "P",
            "featureCode": "PPLA",
            "url": "barcelona_spain_3128760",
            "id": 3128760
        },
        {
            "name": "Pratteln",
            "iso2": "CH",
            "country": "Switzerland",
            "admin1": "Basel-Landschaft",
            "lat": 47.5207,
            "lon": 7.69356,
            "asl": 291,
            "timezone": "Europe\/Zurich",
            "population": 14877,
            "distance": 564.122,
            "icao": "",
            "iata": "",
            "postcodes": [
                "4133"
            ],
            "featureClass": "P",
            "featureCode": "PPL",
            "url": "pratteln_switzerland_2659147",
            "id": 2659147
        },
        {
            "name": "Basel",
            "iso2": "DE",
            "country": "Germany",
            "admin1": "North Rhine-Westphalia",
            "lat": 51.7559,
            "lon": 8.22049,
            "asl": 110,
            "timezone": "Europe\/Berlin",
            "population": 0,
            "distance": 169.25357,
            "icao": "",
            "iata": "",
            "postcodes": [
                ""
            ],
            "featureClass": "P",
            "featureCode": "PPLL",
            "url": "basel_germany_2952290",
            "id": 2952290
        },
        {
            "name": "Aesch",
            "iso2": "CH",
            "country": "Switzerland",
            "admin1": "Basel-Landschaft",
            "lat": 47.471,
            "lon": 7.5973,
            "asl": 307,
            "timezone": "Europe\/Zurich",
            "population": 10138,
            "distance": 571.84705,
            "icao": "",
            "iata": "",
            "postcodes": [
                "4147"
            ],
            "featureClass": "P",
            "featureCode": "PPL",
            "url": "aesch_switzerland_2661852",
            "id": 2661852
        },
        {
            "name": "Baselga di Pin\u00e8",
            "iso2": "IT",
            "country": "Italy",
            "admin1": "Trentino-Alto Adige",
            "lat": 46.1325,
            "lon": 11.2465,
            "asl": 964,
            "timezone": "Europe\/Rome",
            "population": 2966,
            "distance": 681.4931,
            "icao": "",
            "iata": "",
            "postcodes": [
                "38042"
            ],
            "featureClass": "P",
            "featureCode": "PPLA3",
            "url": "baselga-di-pin%c3%a8_italy_3182313",
            "id": 3182313
        },
        {
            "name": "Bazel",
            "iso2": "BE",
            "country": "Belgium",
            "admin1": "Flanders",
            "lat": 51.1474,
            "lon": 4.30129,
            "asl": 14,
            "timezone": "Europe\/Brussels",
            "population": 5687,
            "distance": 449.27072,
            "icao": "",
            "iata": "",
            "postcodes": [
                "",
                "9150"
            ],
            "featureClass": "P",
            "featureCode": "PPL",
            "url": "bazel_belgium_2802529",
            "id": 2802529
        },
        {
            "name": "Baselice",
            "iso2": "IT",
            "country": "Italy",
            "admin1": "Campania",
            "lat": 41.393,
            "lon": 14.9736,
            "asl": 620,
            "timezone": "Europe\/Rome",
            "population": 1982,
            "distance": 1252.4678,
            "icao": "",
            "iata": "",
            "postcodes": [
                "82020"
            ],
            "featureClass": "P",
            "featureCode": "PPLA3",
            "url": "baselice_italy_3182311",
            "id": 3182311
        },
        {
            "name": "Oberdorf",
            "iso2": "CH",
            "country": "Switzerland",
            "admin1": "Basel-Landschaft",
            "lat": 47.3935,
            "lon": 7.75169,
            "asl": 503,
            "timezone": "Europe\/Zurich",
            "population": 2248,
            "distance": 575.9313,
            "icao": "",
            "iata": "",
            "postcodes": [
                "4436"
            ],
            "featureClass": "P",
            "featureCode": "PPL",
            "url": "oberdorf_switzerland_2659399",
            "id": 2659399
        },
        {
            "name": "Sainte-Bazeille",
            "iso2": "FR",
            "country": "France",
            "admin1": "Nouvelle-Aquitaine",
            "lat": 44.5305,
            "lon": 0.09388,
            "asl": 29,
            "timezone": "Europe\/Paris",
            "population": 2885,
            "distance": 1155.8278,
            "icao": "",
            "iata": "",
            "postcodes": [
                "47180"
            ],
            "featureClass": "P",
            "featureCode": "PPL",
            "url": "sainte-bazeille_france_2980742",
            "id": 2980742
        }
    ]
}